work/tb_testing.vcd
$date
    Mar  3, 2025  20:27:44
$end
$version
    TOOL:	xmsim(64)	23.09-s001
$end
$timescale
    1 ps
$end

$scope module tb_testing $end
$var parameter 32 !    WIDTH $end
$var parameter 32 "    EXP_BITS $end
$var parameter 32 #    MANT_BITS $end
$var reg      32 $    a [31:0] $end
$var reg      32 %    b [31:0] $end
$var reg       1 &    operation_select $end
$var reg       1 '    clk $end
$var reg       1 (    reset $end
$var wire     32 )    result [31:0] $end

$scope module dut $end
$var parameter 32 *    WIDTH $end
$var parameter 32 +    EXP_BITS $end
$var parameter 32 ,    MANT_BITS $end
$var wire     32 -    a [31:0] $end
$var wire     32 .    b [31:0] $end
$var wire      1 /    operation_select  $end
$var wire      1 0    clk  $end
$var wire      1 1    reset  $end
$var wire     32 )    result [31:0] $end
$var reg       1 2    a_greater $end
$var reg       1 3    carry_out $end
$var reg       5 4    shift_spaces [4:0] $end
$var reg      27 5    mantissa_a_shifted [26:0] $end
$var reg      27 6    mantissa_b_shifted [26:0] $end
$var reg      27 7    mantissa_result_shifted [26:0] $end
$var reg       1 8    sign_a $end
$var reg       1 9    sign_b $end
$var reg       1 :    sign_result $end
$var reg      23 ;    mantissa_a [22:0] $end
$var reg      23 <    mantissa_b [22:0] $end
$var reg      23 =    mantissa_result [22:0] $end
$var reg       8 >    exp_a [7:0] $end
$var reg       8 ?    exp_b [7:0] $end
$var reg       8 @    exp_result [7:0] $end
$var reg       2 A    exp_disc [1:0] $end

$scope module sign_ins $end
$var parameter 32 B    WIDTH $end
$var wire     32 -    x [31:0] $end
$var wire     32 .    y [31:0] $end
$var wire      1 /    operation_select  $end
$var reg       1 C    result $end
$var wire      1 D    sign_r  $end
$var wire     23 E    mantissa_a [22:0] $end
$var wire     23 F    mantissa_b [22:0] $end
$var wire     23 G    mantissa_result [22:0] $end
$var wire      1 H    sign_b  $end
$var wire      1 I    def1_1  $end
$var wire      8 J    exp_a [7:0] $end
$var wire      8 K    exp_b [7:0] $end
$var wire      1 L    sign_x  $end
$var wire      1 M    sign_y  $end
$upscope $end


$scope module exp_ins $end
$var parameter 32 N    EXP_WIDTH $end
$var wire      8 O    exp_a [7:0] $end
$var wire      8 P    exp_b [7:0] $end
$var reg       5 Q    shift_spaces [4:0] $end
$var wire      1 R    sign_a  $end
$var wire      1 S    sign_b  $end
$var reg       2 T    exp_disc [1:0] $end
$var reg       8 U    exp_value [7:0] $end
$var reg       1 V    out_sign $end
$var wire      1 W    a_greater  $end
$var wire      1 X    a_less  $end
$var wire      1 Y    a_equal  $end
$upscope $end


$scope module mantissa_shifter_ins $end
$var parameter 32 Z    MANTISSA_WIDTH $end
$var wire     23 [    ma [22:0] $end
$var wire     23 \    mb [22:0] $end
$var wire      5 ]    shift_spaces [4:0] $end
$var wire      2 ^    exp_magnitude [1:0] $end
$var reg      27 _    mantissa_a_out [26:0] $end
$var reg      27 `    mantissa_b_out [26:0] $end
$var parameter  2 a    AGREATER $end
$var parameter  2 b    BGREATER $end
$var parameter  2 c    EQUAL $end
$var wire     27 d    operand_a [26:0] $end
$var wire     27 e    operand_b [26:0] $end
$upscope $end


$scope module mantissa_add_sub_ins $end
$var parameter 32 f    MANTISSA_WIDTH $end
$var wire     27 g    man_a [26:0] $end
$var wire     27 h    man_b [26:0] $end
$var wire      1 i    ma_sign  $end
$var wire      1 j    mb_sign  $end
$var wire      1 /    operation_select  $end
$var reg      27 k    result [26:0] $end
$var reg       1 l    carry_out $end
$var wire     27 m    operand_a [26:0] $end
$var wire     27 n    operand_b [26:0] $end
$upscope $end


$scope module normalize_rounder_inst $end
$var parameter 32 o    WIDTH $end
$var wire     27 p    result_mant [26:0] $end
$var wire      8 q    exp_result [7:0] $end
$var wire      1 r    result_sign  $end
$var wire      1 s    carry_out  $end
$var wire      1 0    clk  $end
$var wire      1 1    reset  $end
$var reg      32 t    R [31:0] $end
$var reg       8 u    final_exp [7:0] $end
$var reg      27 v    final_mant [26:0] $end
$var reg      27 w    compliment_mant [26:0] $end
$var reg      23 x    rounded_mant [22:0] $end
$var reg       1 y    round_up $end
$var reg       8 z    new_exp [7:0] $end
$var reg       8 {    exp_after_round [7:0] $end
$var reg      27 |    x [26:0] $end
$var reg      27 }    mant_shifted [26:0] $end
$var reg       1 ~    final_sign $end
$upscope $end

$upscope $end

$upscope $end

$enddefinitions $end
$dumpvars
b100000 o
b10111 f
b11 c
b0 b
b10 a
b10111 Z
b1000 N
b100000 B
b10111 ,
b1000 +
b100000 *
b10111 #
b1000 "
b100000 !
b0 $
b0 %
0&
0'
1(
bx )
b0 -
b0 .
0/
00
11
x2
03
b0 4
b100000000000000000000000000 5
b100000000000000000000000000 6
b0 7
08
09
0:
b0 ;
b0 <
bx =
b0 >
b0 ?
b0 @
b11 A
xC
0D
b0 E
b0 F
bz G
1H
0I
b0 J
b0 K
0L
0M
b0 O
b0 P
b0 Q
0R
0S
b11 T
b0 U
0V
0W
0X
1Y
b0 [
b0 \
b0 ]
b11 ^
b100000000000000000000000000 _
b100000000000000000000000000 `
b100000000000000000000000000 d
b100000000000000000000000000 e
b100000000000000000000000000 g
b100000000000000000000000000 h
0i
0j
b0 k
0l
b100000000000000000000000000 m
b100000000000000000000000000 n
b0 p
b0 q
0r
0s
bx t
b0 u
b0 v
b0 w
b0 x
0y
b0 z
b0 {
b0 |
b0 }
0~
$end
#5000
1'
10
b0 t
b111111111111111111111111111 w
b111111111111111111111111110 |
b11111111 z
1~
b0 )
#10000
0(
0'
00
01
#15000
1'
10
b10000000000000000000000000000000 t
b111111111111111111111111111 }
b11111111111111111111111 x
b10000000000000000000000000000000 )
#20000
b1000000010000000000000000000000 $
b1000000100000000000000000000000 %
0'
00
b1000000100000000000000000000000 .
b1000000010000000000000000000000 -
b10000000000000000000000 ;
b10000000 >
b10000001 ?
b10000001 P
b10000000 O
b10000000000000000000000 [
b10000000 J
b10000000000000000000000 E
b10000001 K
b10000000 U
1D
b110000000000000000000000000 d
0Y
1X
1:
b110000000000000000000000000 _
b10000001 U
b1 Q
b0 T
b10000000 @
b10000000 q
1r
b0 A
b1 4
b10000001 @
b110000000000000000000000000 5
b110000000000000000000000000 g
b10000001 q
b1 ]
b0 ^
b11000000000000000000000000 _
b110000000000000000000000000 m
b11000000000000000000000000 5
b10000000000000000000000000 k
b11000000000000000000000000 g
b10000000000000000000000000 7
b10000000000000000000000000 p
b11000000000000000000000000 m
b111000000000000000000000000 k
1l
13
b111000000000000000000000000 7
b111000000000000000000000000 p
1s
#25000
1'
10
b10000000011111111111111111111111 t
b1000000000000000000000000 v
b100000000000000000000000 |
b10000010 z
b10000000011111111111111111111111 )
#30000
0'
00
#35000
1'
10
b0 x
b10000010 {
#40000
b1000000101000000000000000000000 $
b1000000000000000000000000000000 %
1&
0'
00
1/
b1000000000000000000000000000000 .
b1000000101000000000000000000000 -
0H
0l
b1000000000000000000000 ;
b10000001 >
b10000000 ?
b10000000 P
b10000001 O
b1000000000000000000000 [
0D
b10000001 J
b1000000000000000000000 E
b10000000 K
b11111 Q
b10000000 U
0:
03
0s
0r
b101000000000000000000000000 d
0X
1W
b10100000000000000000000000 _
b1 Q
b10 T
b10000001 U
b10000000 @
b11111 4
b11111 ]
b10000000 q
b0 _
b10000001 @
b10 A
b1 4
b10100000000000000000000000 5
b10100000000000000000000000 g
b1 ]
b10 ^
b10000001 q
b101000000000000000000000000 _
b10000000000000000000000000 `
b0 5
b0 g
b10100000000000000000000000 m
b10000000000000000000000000 6
b101000000000000000000000000 5
b110100000000000000000000000 k
b101000000000000000000000000 g
b10000000000000000000000000 h
b0 m
b110100000000000000000000000 7
b100000000000000000000000000 k
b110100000000000000000000000 p
b10000000000000000000000000 n
b101000000000000000000000000 m
b100000000000000000000000000 7
b111000000000000000000000000 k
b100000000000000000000000000 p
b111000000000000000000000000 7
b111000000000000000000000000 p
#45000
1'
10
b10000000000000000000000000000000 t
b111000000000000000000000000 v
b111000000000000000000000000 w
b111111111111111111111111111 w
b111111111111111111111111110 |
b10000000 z
b10000000000000000000000000000000 )
#50000
0'
00
#55000
1'
10
b11111111111111111111111 x
b10000001 {
#60000
b11000000100000000000000000000000 $
b1000000100000000000000000000000 %
0&
0'
00
0/
b1000000100000000000000000000000 .
b11000000100000000000000000000000 -
1H
b11000000000000000000000000 k
b0 ;
18
b10000001 ?
b10000001 P
1i
1R
b0 [
b0 E
1L
b10000001 K
b0 Q
1V
b11000000000000000000000000 7
b11000000000000000000000000 p
1I
b100000000000000000000000000 d
b11000000000000000000000000 m
1Y
0W
b100000000000000000000000000 _
b1000000000000000000000000 k
0V
b11 T
b0 4
b0 ]
1D
b100000000000000000000000000 `
b11 A
b1000000000000000000000000 7
b100000000000000000000000000 5
1:
1r
b100000000000000000000000000 g
b1000000000000000000000000 p
b11 ^
b100000000000000000000000000 6
b100000000000000000000000000 h
b100000000000000000000000000 m
b10000000000000000000000000 k
b100000000000000000000000000 n
b10000000000000000000000000 7
b0 k
b10000000000000000000000000 p
b0 7
b0 p
#65000
1'
10
b10000000011111111111111111111111 t
b0 v
b0 w
b111111111111111111111111111 w
b10000000011111111111111111111111 )
#70000
0'
00
#75000
1'
10
#80000
b11000000101000000000000000000000 $
b11000000000000000000000000000000 %
1&
0'
00
1/
b11000000000000000000000000000000 .
b11000000101000000000000000000000 -
0H
1l
b1000000000000000000000 ;
b10000000 ?
19
1j
1S
b10000000 P
b1000000000000000000000 [
0I
b1000000000000000000000 E
b10000000 K
1M
1H
1V
13
1s
1I
b101000000000000000000000000 d
0Y
1W
b101000000000000000000000000 _
b1 Q
b10 T
b10 A
b1 4
b101000000000000000000000000 5
b101000000000000000000000000 g
b1 ]
b10 ^
b10000000000000000000000000 `
b11000000000000000000000000 m
b10000000000000000000000000 6
b111000000000000000000000000 k
0l
b10000000000000000000000000 h
03
b111000000000000000000000000 7
b111000000000000000000000000 p
0s
b110000000000000000000000000 n
b1000000000000000000000000 k
1l
13
b1000000000000000000000000 7
b1000000000000000000000000 p
1s
#85000
1'
10
b111000000000000000000000000 v
b11100000000000000000000000 |
b10000010 z
#90000
0'
00
#95000
1'
10
b0 x
b10000010 {
#100000
b0 $
b0 %
0&
0'
00
0/
b0 .
b0 -
0H
b101000000000000000000000000 k
b0 ;
b0 >
08
b0 ?
09
0j
0S
b0 P
0i
0R
b0 O
b0 [
b0 J
b0 E
0L
b0 K
0M
1H
0V
b0 Q
b0 U
b101000000000000000000000000 7
b101000000000000000000000000 p
0I
b100000000000000000000000000 d
b101000000000000000000000000 m
1Y
0W
b10000000000000000000000000 n
b100000000000000000000000000 _
b11000000000000000000000000 k
0l
b11 T
b0 @
b0 4
b0 ]
b0 q
0D
b100000000000000000000000000 `
b11 A
03
b11000000000000000000000000 7
b100000000000000000000000000 5
0:
0r
b100000000000000000000000000 g
b11000000000000000000000000 p
0s
b11 ^
b100000000000000000000000000 6
b100000000000000000000000000 h
b100000000000000000000000000 m
b10000000000000000000000000 k
b100000000000000000000000000 n
b10000000000000000000000000 7
b0 k
b10000000000000000000000000 p
b0 7
b0 p
#105000
1'
10
b10000000000000000000000000000000 t
b0 v
b0 w
b111111111111111111111111111 w
b111111111111111111111111110 |
b11111111 z
b10000000000000000000000000000000 )
#110000
0'
00
#115000
1'
10
b11111111111111111111111 x
b0 {
#120000
1(
0'
00
11
#125000
1'
10
b10000000011111111111111111111111 t
b10000000011111111111111111111111 )
#130000
0(
0'
00
01
